EAN,Price
1343435,200
3576657,350
4556345,"340,4"
5467654,"45,56"
3656556,456
6565447,"67,78"
7878765,"23,56"
6787999,567
4456456,
5675655,"67,78"
5467651,"45,56"
3656551,456
6565441,"67,78"
7878761,"23,56"
6787991,567
4456451,
5675651,"67,78"
